module github.com/caddyserver/forwardproxy

go 1.19

require (
	github.com/caddyserver/caddy/v2 v2.4.0-beta.1
	github.com/orcaman/concurrent-map v1.0.0
	github.com/robfig/cron/v3 v3.0.1
	go.uber.org/zap v1.16.0
	golang.org/x/net v0.0.0-20210119194325-5f4716e94777
)

require (
	github.com/AndreasBriese/bbloom v0.0.0-20190306092124-e2d15f34fcf9 // indirect
	github.com/DataDog/zstd v1.4.1 // indirect
	github.com/Masterminds/goutils v1.1.0 // indirect
	github.com/Masterminds/semver/v3 v3.1.0 // indirect
	github.com/Masterminds/sprig/v3 v3.1.0 // indirect
	github.com/alecthomas/chroma v0.8.2 // indirect
	github.com/antlr/antlr4 v0.0.0-20200503195918-621b933c7a7f // indirect
	github.com/beorn7/perks v1.0.1 // indirect
	github.com/caddyserver/certmagic v0.12.1-0.20210211020017-ebb8d8b435b4 // indirect
	github.com/cespare/xxhash v1.1.0 // indirect
	github.com/cespare/xxhash/v2 v2.1.1 // indirect
	github.com/cheekybits/genny v1.0.0 // indirect
	github.com/chzyer/readline v0.0.0-20180603132655-2972be24d48e // indirect
	github.com/cpuguy83/go-md2man/v2 v2.0.0 // indirect
	github.com/danwakefield/fnmatch v0.0.0-20160403171240-cbb64ac3d964 // indirect
	github.com/dgraph-io/badger v1.5.3 // indirect
	github.com/dgraph-io/badger/v2 v2.0.1-rc1.0.20200413122845-09dd2e1a4195 // indirect
	github.com/dgraph-io/ristretto v0.0.2-0.20200115201040-8f368f2f2ab3 // indirect
	github.com/dgryski/go-farm v0.0.0-20190423205320-6a90982ecee2 // indirect
	github.com/dlclark/regexp2 v1.2.0 // indirect
	github.com/dustin/go-humanize v1.0.1-0.20200219035652-afde56e7acac // indirect
	github.com/go-sql-driver/mysql v1.5.0 // indirect
	github.com/golang/protobuf v1.4.3 // indirect
	github.com/golang/snappy v0.0.1 // indirect
	github.com/google/cel-go v0.6.0 // indirect
	github.com/google/uuid v1.1.1 // indirect
	github.com/huandu/xstrings v1.3.1 // indirect
	github.com/imdario/mergo v0.3.8 // indirect
	github.com/juju/ansiterm v0.0.0-20180109212912-720a0952cc2a // indirect
	github.com/klauspost/cpuid v1.2.5 // indirect
	github.com/klauspost/cpuid/v2 v2.0.1 // indirect
	github.com/libdns/libdns v0.1.0 // indirect
	github.com/lucas-clemente/quic-go v0.19.3 // indirect
	github.com/lunixbochs/vtclean v1.0.0 // indirect
	github.com/manifoldco/promptui v0.3.1 // indirect
	github.com/marten-seemann/qpack v0.2.1 // indirect
	github.com/marten-seemann/qtls v0.10.0 // indirect
	github.com/marten-seemann/qtls-go1-15 v0.1.1 // indirect
	github.com/mattn/go-colorable v0.1.6 // indirect
	github.com/mattn/go-isatty v0.0.12 // indirect
	github.com/matttproud/golang_protobuf_extensions v1.0.1 // indirect
	github.com/mholt/acmez v0.1.3 // indirect
	github.com/miekg/dns v1.1.30 // indirect
	github.com/mitchellh/copystructure v1.0.0 // indirect
	github.com/mitchellh/reflectwalk v1.0.0 // indirect
	github.com/naoina/go-stringutil v0.1.0 // indirect
	github.com/naoina/toml v0.1.1 // indirect
	github.com/pkg/errors v0.9.1 // indirect
	github.com/prometheus/client_golang v1.9.0 // indirect
	github.com/prometheus/client_model v0.2.0 // indirect
	github.com/prometheus/common v0.15.0 // indirect
	github.com/prometheus/procfs v0.2.0 // indirect
	github.com/russross/blackfriday/v2 v2.0.1 // indirect
	github.com/samfoo/ansi v0.0.0-20160124022901-b6bd2ded7189 // indirect
	github.com/shurcooL/sanitized_anchor_name v1.0.0 // indirect
	github.com/smallstep/certificates v0.15.4 // indirect
	github.com/smallstep/cli v0.15.2 // indirect
	github.com/smallstep/nosql v0.3.0 // indirect
	github.com/smallstep/truststore v0.9.6 // indirect
	github.com/spf13/cast v1.3.1 // indirect
	github.com/urfave/cli v1.22.2 // indirect
	github.com/yuin/goldmark v1.2.1 // indirect
	github.com/yuin/goldmark-highlighting v0.0.0-20200307114337-60d527fdb691 // indirect
	go.etcd.io/bbolt v1.3.3 // indirect
	go.step.sm/crypto v0.6.0 // indirect
	go.uber.org/atomic v1.6.0 // indirect
	go.uber.org/multierr v1.5.0 // indirect
	golang.org/x/crypto v0.0.0-20200728195943-123391ffb6de // indirect
	golang.org/x/sys v0.0.0-20201214210602-f9fddec55a1e // indirect
	golang.org/x/text v0.3.3 // indirect
	google.golang.org/genproto v0.0.0-20200806141610-86f49bd18e98 // indirect
	google.golang.org/grpc v1.27.1 // indirect
	google.golang.org/protobuf v1.24.0 // indirect
	gopkg.in/square/go-jose.v2 v2.5.1 // indirect
	gopkg.in/yaml.v2 v2.3.0 // indirect
	howett.net/plist v0.0.0-20181124034731-591f970eefbb // indirect
)
